{
  "id": "cmhc-protocols",
  "realm": "cmhc-protocols",
  "notBefore": 1519839561,
  "revokeRefreshToken": false,
  "refreshTokenMaxReuse": 0,
  "accessTokenLifespan": 432000,
  "accessTokenLifespanForImplicitFlow": 1296000,
  "ssoSessionIdleTimeout": 2592000,
  "ssoSessionMaxLifespan": 864000,
  "offlineSessionIdleTimeout": 2592000,
  "accessCodeLifespan": 60,
  "accessCodeLifespanUserAction": 300,
  "accessCodeLifespanLogin": 1800,
  "actionTokenGeneratedByAdminLifespan": 43200,
  "actionTokenGeneratedByUserLifespan": 300,
  "enabled": true,
  "sslRequired": "external",
  "registrationAllowed": false,
  "registrationEmailAsUsername": false,
  "rememberMe": false,
  "verifyEmail": true,
  "loginWithEmailAllowed": true,
  "duplicateEmailsAllowed": false,
  "resetPasswordAllowed": true,
  "editUsernameAllowed": false,
  "bruteForceProtected": false,
  "permanentLockout": false,
  "maxFailureWaitSeconds": 900,
  "minimumQuickLoginWaitSeconds": 60,
  "waitIncrementSeconds": 60,
  "quickLoginCheckMilliSeconds": 1000,
  "maxDeltaTimeSeconds": 43200,
  "failureFactor": 30,
  "roles": {
    "realm": [
      {
        "id": "c2335d87-1d99-411f-be7d-3c7cb1b868a3",
        "name": "offline_access",
        "description": "${role_offline-access}",
        "scopeParamRequired": true,
        "composite": false,
        "clientRole": false,
        "containerId": "cmhc-protocols"
      },
      {
        "id": "f7a232a4-4908-4c38-9516-be40dbbf1f32",
        "name": "uma_authorization",
        "description": "${role_uma_authorization}",
        "scopeParamRequired": false,
        "composite": false,
        "clientRole": false,
        "containerId": "cmhc-protocols"
      }
    ],
    "client": {
      "realm-management": [
        {
          "id": "7ed7fbac-7ea4-4ef9-911c-75e4613a9732",
          "name": "manage-realm",
          "description": "${role_manage-realm}",
          "scopeParamRequired": false,
          "composite": false,
          "clientRole": true,
          "containerId": "bc810b09-b139-4c0d-af65-3835d66d93f9"
        },
        {
          "id": "ad9942a2-90db-4333-8444-ae4f4f95dfe3",
          "name": "query-clients",
          "description": "${role_query-clients}",
          "scopeParamRequired": false,
          "composite": false,
          "clientRole": true,
          "containerId": "bc810b09-b139-4c0d-af65-3835d66d93f9"
        },
        {
          "id": "781790e5-64e7-49cb-ab68-d8d4d8b47931",
          "name": "view-users",
          "description": "${role_view-users}",
          "scopeParamRequired": false,
          "composite": true,
          "composites": {
            "client": {
              "realm-management": [
                "query-users",
                "query-groups"
              ]
            }
          },
          "clientRole": true,
          "containerId": "bc810b09-b139-4c0d-af65-3835d66d93f9"
        },
        {
          "id": "7fd8fd2b-dc42-43d3-b5a7-de1adcb91f7a",
          "name": "view-authorization",
          "description": "${role_view-authorization}",
          "scopeParamRequired": false,
          "composite": false,
          "clientRole": true,
          "containerId": "bc810b09-b139-4c0d-af65-3835d66d93f9"
        },
        {
          "id": "c80870cc-3174-46ce-839a-1e43656c6bfd",
          "name": "realm-admin",
          "description": "${role_realm-admin}",
          "scopeParamRequired": false,
          "composite": true,
          "composites": {
            "client": {
              "realm-management": [
                "manage-realm",
                "query-clients",
                "view-users",
                "view-authorization",
                "query-users",
                "impersonation",
                "query-groups",
                "manage-authorization",
                "manage-events",
                "view-events",
                "query-realms",
                "view-identity-providers",
                "manage-clients",
                "view-realm",
                "manage-users",
                "view-clients",
                "manage-identity-providers",
                "create-client"
              ]
            }
          },
          "clientRole": true,
          "containerId": "bc810b09-b139-4c0d-af65-3835d66d93f9"
        },
        {
          "id": "92e074ee-a559-406f-827b-ee08219dcf1b",
          "name": "query-users",
          "description": "${role_query-users}",
          "scopeParamRequired": false,
          "composite": false,
          "clientRole": true,
          "containerId": "bc810b09-b139-4c0d-af65-3835d66d93f9"
        },
        {
          "id": "2e8b4026-1003-4523-a814-4c1cbe2f41f6",
          "name": "impersonation",
          "description": "${role_impersonation}",
          "scopeParamRequired": false,
          "composite": false,
          "clientRole": true,
          "containerId": "bc810b09-b139-4c0d-af65-3835d66d93f9"
        },
        {
          "id": "6afbb2ba-b013-4304-8635-41f85a737993",
          "name": "query-groups",
          "description": "${role_query-groups}",
          "scopeParamRequired": false,
          "composite": false,
          "clientRole": true,
          "containerId": "bc810b09-b139-4c0d-af65-3835d66d93f9"
        },
        {
          "id": "c2e9112e-b25b-40f9-8a61-1b4f08136820",
          "name": "manage-authorization",
          "description": "${role_manage-authorization}",
          "scopeParamRequired": false,
          "composite": false,
          "clientRole": true,
          "containerId": "bc810b09-b139-4c0d-af65-3835d66d93f9"
        },
        {
          "id": "d7d18106-ab81-4385-a386-7c79e994376e",
          "name": "manage-events",
          "description": "${role_manage-events}",
          "scopeParamRequired": false,
          "composite": false,
          "clientRole": true,
          "containerId": "bc810b09-b139-4c0d-af65-3835d66d93f9"
        },
        {
          "id": "c6dabe13-74d5-46ac-af7d-c27f5caa98ab",
          "name": "view-events",
          "description": "${role_view-events}",
          "scopeParamRequired": false,
          "composite": false,
          "clientRole": true,
          "containerId": "bc810b09-b139-4c0d-af65-3835d66d93f9"
        },
        {
          "id": "5936e818-7297-4d62-aaf4-cfe93ec4d8dd",
          "name": "query-realms",
          "description": "${role_query-realms}",
          "scopeParamRequired": false,
          "composite": false,
          "clientRole": true,
          "containerId": "bc810b09-b139-4c0d-af65-3835d66d93f9"
        },
        {
          "id": "6a342fc5-3ad7-442d-b9c3-c9d7bada22b7",
          "name": "view-identity-providers",
          "description": "${role_view-identity-providers}",
          "scopeParamRequired": false,
          "composite": false,
          "clientRole": true,
          "containerId": "bc810b09-b139-4c0d-af65-3835d66d93f9"
        },
        {
          "id": "4ce74f7c-0282-4333-b331-537309c56dfe",
          "name": "manage-clients",
          "description": "${role_manage-clients}",
          "scopeParamRequired": false,
          "composite": false,
          "clientRole": true,
          "containerId": "bc810b09-b139-4c0d-af65-3835d66d93f9"
        },
        {
          "id": "ee0ae6ed-71c1-471d-a801-33045e56339d",
          "name": "view-realm",
          "description": "${role_view-realm}",
          "scopeParamRequired": false,
          "composite": false,
          "clientRole": true,
          "containerId": "bc810b09-b139-4c0d-af65-3835d66d93f9"
        },
        {
          "id": "f19d8a78-6e35-4932-b6d0-42a0ee5a62ce",
          "name": "manage-users",
          "description": "${role_manage-users}",
          "scopeParamRequired": false,
          "composite": false,
          "clientRole": true,
          "containerId": "bc810b09-b139-4c0d-af65-3835d66d93f9"
        },
        {
          "id": "20e93e10-0813-494a-8321-5fda11332b4c",
          "name": "view-clients",
          "description": "${role_view-clients}",
          "scopeParamRequired": false,
          "composite": true,
          "composites": {
            "client": {
              "realm-management": [
                "query-clients"
              ]
            }
          },
          "clientRole": true,
          "containerId": "bc810b09-b139-4c0d-af65-3835d66d93f9"
        },
        {
          "id": "5e676e8d-e5ad-4bc7-a499-adf018a49c36",
          "name": "manage-identity-providers",
          "description": "${role_manage-identity-providers}",
          "scopeParamRequired": false,
          "composite": false,
          "clientRole": true,
          "containerId": "bc810b09-b139-4c0d-af65-3835d66d93f9"
        },
        {
          "id": "552ec1d9-562c-4ddf-bf9c-9dcbe51ae3f3",
          "name": "create-client",
          "description": "${role_create-client}",
          "scopeParamRequired": false,
          "composite": false,
          "clientRole": true,
          "containerId": "bc810b09-b139-4c0d-af65-3835d66d93f9"
        }
      ],
      "protocol-api": [],
      "security-admin-console": [],
      "admin-cli": [],
      "broker": [
        {
          "id": "d0ac8124-80cb-46f7-87b7-d3698fe73ab3",
          "name": "read-token",
          "description": "${role_read-token}",
          "scopeParamRequired": false,
          "composite": false,
          "clientRole": true,
          "containerId": "100881f6-60de-4a1e-834b-44e7c88fc206"
        }
      ],
      "account": [
        {
          "id": "fa0f8ae6-d3cc-4d5e-971f-472d23ec6eac",
          "name": "manage-account",
          "description": "${role_manage-account}",
          "scopeParamRequired": false,
          "composite": true,
          "composites": {
            "client": {
              "account": [
                "manage-account-links"
              ]
            }
          },
          "clientRole": true,
          "containerId": "14f19cdf-ab8e-4470-96b9-5840e494854e"
        },
        {
          "id": "f31bcea7-345d-4145-bcbb-b5fa9fd12adc",
          "name": "manage-account-links",
          "description": "${role_manage-account-links}",
          "scopeParamRequired": false,
          "composite": false,
          "clientRole": true,
          "containerId": "14f19cdf-ab8e-4470-96b9-5840e494854e"
        },
        {
          "id": "44c56dbe-9fd0-4cd0-bcd3-9b49f6601274",
          "name": "view-profile",
          "description": "${role_view-profile}",
          "scopeParamRequired": false,
          "composite": false,
          "clientRole": true,
          "containerId": "14f19cdf-ab8e-4470-96b9-5840e494854e"
        }
      ]
    }
  },
  "groups": [],
  "defaultRoles": [
    "offline_access",
    "uma_authorization"
  ],
  "requiredCredentials": [
    "password"
  ],
  "otpPolicyType": "totp",
  "otpPolicyAlgorithm": "HmacSHA1",
  "otpPolicyInitialCounter": 0,
  "otpPolicyDigits": 6,
  "otpPolicyLookAheadWindow": 1,
  "otpPolicyPeriod": 30,
  "otpSupportedApplications": [
    "FreeOTP",
    "Google Authenticator"
  ],
  "clients": [
    {
      "id": "14f19cdf-ab8e-4470-96b9-5840e494854e",
      "clientId": "account",
      "name": "${client_account}",
      "baseUrl": "/auth/realms/cmhc-protocols/account",
      "surrogateAuthRequired": false,
      "enabled": true,
      "clientAuthenticatorType": "client-secret",
      "secret": "**********",
      "defaultRoles": [
        "view-profile",
        "manage-account"
      ],
      "redirectUris": [
        "/auth/realms/cmhc-protocols/account/*"
      ],
      "webOrigins": [],
      "notBefore": 0,
      "bearerOnly": false,
      "consentRequired": false,
      "standardFlowEnabled": true,
      "implicitFlowEnabled": false,
      "directAccessGrantsEnabled": false,
      "serviceAccountsEnabled": false,
      "publicClient": false,
      "frontchannelLogout": false,
      "protocol": "openid-connect",
      "attributes": {},
      "fullScopeAllowed": false,
      "nodeReRegistrationTimeout": 0,
      "protocolMappers": [
        {
          "id": "fc41e4a1-e0f4-43d0-a164-5d1143a6911e",
          "name": "family name",
          "protocol": "openid-connect",
          "protocolMapper": "oidc-usermodel-property-mapper",
          "consentRequired": true,
          "consentText": "${familyName}",
          "config": {
            "userinfo.token.claim": "true",
            "user.attribute": "lastName",
            "id.token.claim": "true",
            "access.token.claim": "true",
            "claim.name": "family_name",
            "jsonType.label": "String"
          }
        },
        {
          "id": "1a2999ae-248c-47f1-b05e-b17baa2921fd",
          "name": "role list",
          "protocol": "saml",
          "protocolMapper": "saml-role-list-mapper",
          "consentRequired": false,
          "config": {
            "single": "false",
            "attribute.nameformat": "Basic",
            "attribute.name": "Role"
          }
        },
        {
          "id": "bf8140aa-97e0-4ec0-80c3-3fd40f564533",
          "name": "username",
          "protocol": "openid-connect",
          "protocolMapper": "oidc-usermodel-property-mapper",
          "consentRequired": true,
          "consentText": "${username}",
          "config": {
            "userinfo.token.claim": "true",
            "user.attribute": "username",
            "id.token.claim": "true",
            "access.token.claim": "true",
            "claim.name": "preferred_username",
            "jsonType.label": "String"
          }
        },
        {
          "id": "f8e29503-f178-4a28-b162-1845e6eea24c",
          "name": "email",
          "protocol": "openid-connect",
          "protocolMapper": "oidc-usermodel-property-mapper",
          "consentRequired": true,
          "consentText": "${email}",
          "config": {
            "userinfo.token.claim": "true",
            "user.attribute": "email",
            "id.token.claim": "true",
            "access.token.claim": "true",
            "claim.name": "email",
            "jsonType.label": "String"
          }
        },
        {
          "id": "a14c719b-2aa4-451a-91e5-ec5eb471935e",
          "name": "full name",
          "protocol": "openid-connect",
          "protocolMapper": "oidc-full-name-mapper",
          "consentRequired": true,
          "consentText": "${fullName}",
          "config": {
            "id.token.claim": "true",
            "access.token.claim": "true",
            "userinfo.token.claim": "true"
          }
        },
        {
          "id": "ea441c7f-46c6-4296-810d-55ab372d46bf",
          "name": "given name",
          "protocol": "openid-connect",
          "protocolMapper": "oidc-usermodel-property-mapper",
          "consentRequired": true,
          "consentText": "${givenName}",
          "config": {
            "userinfo.token.claim": "true",
            "user.attribute": "firstName",
            "id.token.claim": "true",
            "access.token.claim": "true",
            "claim.name": "given_name",
            "jsonType.label": "String"
          }
        }
      ],
      "useTemplateConfig": false,
      "useTemplateScope": false,
      "useTemplateMappers": false
    },
    {
      "id": "100881f6-60de-4a1e-834b-44e7c88fc206",
      "clientId": "broker",
      "name": "${client_broker}",
      "surrogateAuthRequired": false,
      "enabled": true,
      "clientAuthenticatorType": "client-secret",
      "secret": "**********",
      "redirectUris": [],
      "webOrigins": [],
      "notBefore": 0,
      "bearerOnly": false,
      "consentRequired": false,
      "standardFlowEnabled": true,
      "implicitFlowEnabled": false,
      "directAccessGrantsEnabled": false,
      "serviceAccountsEnabled": false,
      "publicClient": false,
      "frontchannelLogout": false,
      "protocol": "openid-connect",
      "attributes": {},
      "fullScopeAllowed": false,
      "nodeReRegistrationTimeout": 0,
      "protocolMappers": [
        {
          "id": "9b873cfd-d919-42ce-be21-9214c7744180",
          "name": "full name",
          "protocol": "openid-connect",
          "protocolMapper": "oidc-full-name-mapper",
          "consentRequired": true,
          "consentText": "${fullName}",
          "config": {
            "id.token.claim": "true",
            "access.token.claim": "true",
            "userinfo.token.claim": "true"
          }
        },
        {
          "id": "ccc056ed-4723-4648-b558-3d475cb7d033",
          "name": "family name",
          "protocol": "openid-connect",
          "protocolMapper": "oidc-usermodel-property-mapper",
          "consentRequired": true,
          "consentText": "${familyName}",
          "config": {
            "userinfo.token.claim": "true",
            "user.attribute": "lastName",
            "id.token.claim": "true",
            "access.token.claim": "true",
            "claim.name": "family_name",
            "jsonType.label": "String"
          }
        },
        {
          "id": "346c6106-bf0b-4486-88b2-8b7d43e2a5f0",
          "name": "role list",
          "protocol": "saml",
          "protocolMapper": "saml-role-list-mapper",
          "consentRequired": false,
          "config": {
            "single": "false",
            "attribute.nameformat": "Basic",
            "attribute.name": "Role"
          }
        },
        {
          "id": "573f18a0-db7e-4f86-b08b-80227a0a5ddf",
          "name": "email",
          "protocol": "openid-connect",
          "protocolMapper": "oidc-usermodel-property-mapper",
          "consentRequired": true,
          "consentText": "${email}",
          "config": {
            "userinfo.token.claim": "true",
            "user.attribute": "email",
            "id.token.claim": "true",
            "access.token.claim": "true",
            "claim.name": "email",
            "jsonType.label": "String"
          }
        },
        {
          "id": "c65dee8e-7cae-4c17-a2d6-f0ff67090b5c",
          "name": "username",
          "protocol": "openid-connect",
          "protocolMapper": "oidc-usermodel-property-mapper",
          "consentRequired": true,
          "consentText": "${username}",
          "config": {
            "userinfo.token.claim": "true",
            "user.attribute": "username",
            "id.token.claim": "true",
            "access.token.claim": "true",
            "claim.name": "preferred_username",
            "jsonType.label": "String"
          }
        },
        {
          "id": "362faf54-d59e-4970-87f8-56626e6578be",
          "name": "given name",
          "protocol": "openid-connect",
          "protocolMapper": "oidc-usermodel-property-mapper",
          "consentRequired": true,
          "consentText": "${givenName}",
          "config": {
            "userinfo.token.claim": "true",
            "user.attribute": "firstName",
            "id.token.claim": "true",
            "access.token.claim": "true",
            "claim.name": "given_name",
            "jsonType.label": "String"
          }
        }
      ],
      "useTemplateConfig": false,
      "useTemplateScope": false,
      "useTemplateMappers": false
    },
    {
      "id": "bc810b09-b139-4c0d-af65-3835d66d93f9",
      "clientId": "realm-management",
      "name": "${client_realm-management}",
      "surrogateAuthRequired": false,
      "enabled": true,
      "clientAuthenticatorType": "client-secret",
      "secret": "**********",
      "redirectUris": [],
      "webOrigins": [],
      "notBefore": 0,
      "bearerOnly": true,
      "consentRequired": false,
      "standardFlowEnabled": true,
      "implicitFlowEnabled": false,
      "directAccessGrantsEnabled": false,
      "serviceAccountsEnabled": false,
      "publicClient": false,
      "frontchannelLogout": false,
      "protocol": "openid-connect",
      "attributes": {},
      "fullScopeAllowed": false,
      "nodeReRegistrationTimeout": 0,
      "protocolMappers": [
        {
          "id": "09d86c0a-0114-45e0-8564-8decd7554fe1",
          "name": "given name",
          "protocol": "openid-connect",
          "protocolMapper": "oidc-usermodel-property-mapper",
          "consentRequired": true,
          "consentText": "${givenName}",
          "config": {
            "userinfo.token.claim": "true",
            "user.attribute": "firstName",
            "id.token.claim": "true",
            "access.token.claim": "true",
            "claim.name": "given_name",
            "jsonType.label": "String"
          }
        },
        {
          "id": "fceadda2-5281-48a7-8d61-5954db2aa988",
          "name": "family name",
          "protocol": "openid-connect",
          "protocolMapper": "oidc-usermodel-property-mapper",
          "consentRequired": true,
          "consentText": "${familyName}",
          "config": {
            "userinfo.token.claim": "true",
            "user.attribute": "lastName",
            "id.token.claim": "true",
            "access.token.claim": "true",
            "claim.name": "family_name",
            "jsonType.label": "String"
          }
        },
        {
          "id": "b6881d84-5ac4-4453-b0ca-15cc5dd21353",
          "name": "role list",
          "protocol": "saml",
          "protocolMapper": "saml-role-list-mapper",
          "consentRequired": false,
          "config": {
            "single": "false",
            "attribute.nameformat": "Basic",
            "attribute.name": "Role"
          }
        },
        {
          "id": "997191be-7760-4cb7-9f83-d1843227e770",
          "name": "email",
          "protocol": "openid-connect",
          "protocolMapper": "oidc-usermodel-property-mapper",
          "consentRequired": true,
          "consentText": "${email}",
          "config": {
            "userinfo.token.claim": "true",
            "user.attribute": "email",
            "id.token.claim": "true",
            "access.token.claim": "true",
            "claim.name": "email",
            "jsonType.label": "String"
          }
        },
        {
          "id": "1be91e16-dbe7-4f6c-95d4-9db87c5460b5",
          "name": "username",
          "protocol": "openid-connect",
          "protocolMapper": "oidc-usermodel-property-mapper",
          "consentRequired": true,
          "consentText": "${username}",
          "config": {
            "userinfo.token.claim": "true",
            "user.attribute": "username",
            "id.token.claim": "true",
            "access.token.claim": "true",
            "claim.name": "preferred_username",
            "jsonType.label": "String"
          }
        },
        {
          "id": "3411bd61-58ed-4a86-ba6a-450878cf3dd5",
          "name": "full name",
          "protocol": "openid-connect",
          "protocolMapper": "oidc-full-name-mapper",
          "consentRequired": true,
          "consentText": "${fullName}",
          "config": {
            "id.token.claim": "true",
            "access.token.claim": "true",
            "userinfo.token.claim": "true"
          }
        }
      ],
      "useTemplateConfig": false,
      "useTemplateScope": false,
      "useTemplateMappers": false
    },
    {
      "id": "d3d240d8-5a11-41c3-af11-3556df3391bd",
      "clientId": "protocol-api",
      "surrogateAuthRequired": false,
      "enabled": true,
      "clientAuthenticatorType": "client-secret",
      "secret": "**********",
      "redirectUris": [
        "",
        "https://cmhc-protocols.localhost/*",
        "https://cmhc-protocols.org/*",
        "http://cmhc-protocols.localhost/*",
        "http://cmhc-protocols.org/*"
      ],
      "webOrigins": [
        "",
        "https://cmhc-protocols.localhost/",
        "http://cmhc-protocols.localhost/"
      ],
      "notBefore": 0,
      "bearerOnly": false,
      "consentRequired": false,
      "standardFlowEnabled": true,
      "implicitFlowEnabled": false,
      "directAccessGrantsEnabled": true,
      "serviceAccountsEnabled": false,
      "publicClient": true,
      "frontchannelLogout": false,
      "protocol": "openid-connect",
      "attributes": {
        "saml.assertion.signature": "false",
        "saml.force.post.binding": "false",
        "saml.multivalued.roles": "false",
        "saml.encrypt": "false",
        "saml_force_name_id_format": "false",
        "saml.client.signature": "false",
        "saml.authnstatement": "false",
        "saml.server.signature": "false",
        "saml.server.signature.keyinfo.ext": "false",
        "saml.onetimeuse.condition": "false"
      },
      "fullScopeAllowed": true,
      "nodeReRegistrationTimeout": -1,
      "protocolMappers": [
        {
          "id": "265da476-e5cc-4222-8a10-03eda6f1c613",
          "name": "family name",
          "protocol": "openid-connect",
          "protocolMapper": "oidc-usermodel-property-mapper",
          "consentRequired": true,
          "consentText": "${familyName}",
          "config": {
            "userinfo.token.claim": "true",
            "user.attribute": "lastName",
            "id.token.claim": "true",
            "access.token.claim": "true",
            "claim.name": "family_name",
            "jsonType.label": "String"
          }
        },
        {
          "id": "dfd3051c-5a15-47d3-84d8-f4d069ebe020",
          "name": "username",
          "protocol": "openid-connect",
          "protocolMapper": "oidc-usermodel-property-mapper",
          "consentRequired": true,
          "consentText": "${username}",
          "config": {
            "userinfo.token.claim": "true",
            "user.attribute": "username",
            "id.token.claim": "true",
            "access.token.claim": "true",
            "claim.name": "preferred_username",
            "jsonType.label": "String"
          }
        },
        {
          "id": "f0e4fdda-2b9e-4ac6-b254-a5fe0b9eefce",
          "name": "given name",
          "protocol": "openid-connect",
          "protocolMapper": "oidc-usermodel-property-mapper",
          "consentRequired": true,
          "consentText": "${givenName}",
          "config": {
            "userinfo.token.claim": "true",
            "user.attribute": "firstName",
            "id.token.claim": "true",
            "access.token.claim": "true",
            "claim.name": "given_name",
            "jsonType.label": "String"
          }
        },
        {
          "id": "32917f26-c28e-4830-9cd6-53c607828f5b",
          "name": "full name",
          "protocol": "openid-connect",
          "protocolMapper": "oidc-full-name-mapper",
          "consentRequired": true,
          "consentText": "${fullName}",
          "config": {
            "id.token.claim": "true",
            "access.token.claim": "true",
            "userinfo.token.claim": "true"
          }
        },
        {
          "id": "bc045770-967f-43d3-9c81-f68f48e6053a",
          "name": "email",
          "protocol": "openid-connect",
          "protocolMapper": "oidc-usermodel-property-mapper",
          "consentRequired": true,
          "consentText": "${email}",
          "config": {
            "userinfo.token.claim": "true",
            "user.attribute": "email",
            "id.token.claim": "true",
            "access.token.claim": "true",
            "claim.name": "email",
            "jsonType.label": "String"
          }
        },
        {
          "id": "3c9830c5-cc70-4afb-9478-52153305f3ef",
          "name": "role list",
          "protocol": "saml",
          "protocolMapper": "saml-role-list-mapper",
          "consentRequired": false,
          "config": {
            "single": "false",
            "attribute.nameformat": "Basic",
            "attribute.name": "Role"
          }
        }
      ],
      "useTemplateConfig": false,
      "useTemplateScope": false,
      "useTemplateMappers": false
    },
    {
      "id": "05976a25-dbce-4771-8261-a2a5783d47d8",
      "clientId": "admin-cli",
      "name": "${client_admin-cli}",
      "surrogateAuthRequired": false,
      "enabled": true,
      "clientAuthenticatorType": "client-secret",
      "secret": "**********",
      "redirectUris": [],
      "webOrigins": [],
      "notBefore": 0,
      "bearerOnly": false,
      "consentRequired": false,
      "standardFlowEnabled": false,
      "implicitFlowEnabled": false,
      "directAccessGrantsEnabled": true,
      "serviceAccountsEnabled": false,
      "publicClient": true,
      "frontchannelLogout": false,
      "protocol": "openid-connect",
      "attributes": {},
      "fullScopeAllowed": false,
      "nodeReRegistrationTimeout": 0,
      "protocolMappers": [
        {
          "id": "39ed9f67-24d0-429f-a067-6aa7f7943665",
          "name": "family name",
          "protocol": "openid-connect",
          "protocolMapper": "oidc-usermodel-property-mapper",
          "consentRequired": true,
          "consentText": "${familyName}",
          "config": {
            "userinfo.token.claim": "true",
            "user.attribute": "lastName",
            "id.token.claim": "true",
            "access.token.claim": "true",
            "claim.name": "family_name",
            "jsonType.label": "String"
          }
        },
        {
          "id": "a28f0c05-035e-46f8-b2b0-2e9b57244412",
          "name": "full name",
          "protocol": "openid-connect",
          "protocolMapper": "oidc-full-name-mapper",
          "consentRequired": true,
          "consentText": "${fullName}",
          "config": {
            "id.token.claim": "true",
            "access.token.claim": "true",
            "userinfo.token.claim": "true"
          }
        },
        {
          "id": "b54fed7f-39b5-4e8c-a1d8-5ca2090a9dfd",
          "name": "email",
          "protocol": "openid-connect",
          "protocolMapper": "oidc-usermodel-property-mapper",
          "consentRequired": true,
          "consentText": "${email}",
          "config": {
            "userinfo.token.claim": "true",
            "user.attribute": "email",
            "id.token.claim": "true",
            "access.token.claim": "true",
            "claim.name": "email",
            "jsonType.label": "String"
          }
        },
        {
          "id": "5b5faddd-88f8-4592-b5a1-5c4d157bb511",
          "name": "given name",
          "protocol": "openid-connect",
          "protocolMapper": "oidc-usermodel-property-mapper",
          "consentRequired": true,
          "consentText": "${givenName}",
          "config": {
            "userinfo.token.claim": "true",
            "user.attribute": "firstName",
            "id.token.claim": "true",
            "access.token.claim": "true",
            "claim.name": "given_name",
            "jsonType.label": "String"
          }
        },
        {
          "id": "c5c38253-2164-4f23-b339-3fdcac2189a0",
          "name": "username",
          "protocol": "openid-connect",
          "protocolMapper": "oidc-usermodel-property-mapper",
          "consentRequired": true,
          "consentText": "${username}",
          "config": {
            "userinfo.token.claim": "true",
            "user.attribute": "username",
            "id.token.claim": "true",
            "access.token.claim": "true",
            "claim.name": "preferred_username",
            "jsonType.label": "String"
          }
        },
        {
          "id": "f4ed645b-ed0b-47e8-b753-765fdeac7881",
          "name": "role list",
          "protocol": "saml",
          "protocolMapper": "saml-role-list-mapper",
          "consentRequired": false,
          "config": {
            "single": "false",
            "attribute.nameformat": "Basic",
            "attribute.name": "Role"
          }
        }
      ],
      "useTemplateConfig": false,
      "useTemplateScope": false,
      "useTemplateMappers": false
    },
    {
      "id": "b7151489-6f74-4f77-8cbb-f69e0ad76f31",
      "clientId": "security-admin-console",
      "name": "${client_security-admin-console}",
      "baseUrl": "/auth/admin/cmhc-protocols/console/index.html",
      "surrogateAuthRequired": false,
      "enabled": true,
      "clientAuthenticatorType": "client-secret",
      "secret": "**********",
      "redirectUris": [
        "/auth/admin/cmhc-protocols/console/*"
      ],
      "webOrigins": [],
      "notBefore": 0,
      "bearerOnly": false,
      "consentRequired": false,
      "standardFlowEnabled": true,
      "implicitFlowEnabled": false,
      "directAccessGrantsEnabled": false,
      "serviceAccountsEnabled": false,
      "publicClient": true,
      "frontchannelLogout": false,
      "protocol": "openid-connect",
      "attributes": {},
      "fullScopeAllowed": false,
      "nodeReRegistrationTimeout": 0,
      "protocolMappers": [
        {
          "id": "161555c9-621e-40e2-80e7-35a75d6c4a12",
          "name": "family name",
          "protocol": "openid-connect",
          "protocolMapper": "oidc-usermodel-property-mapper",
          "consentRequired": true,
          "consentText": "${familyName}",
          "config": {
            "userinfo.token.claim": "true",
            "user.attribute": "lastName",
            "id.token.claim": "true",
            "access.token.claim": "true",
            "claim.name": "family_name",
            "jsonType.label": "String"
          }
        },
        {
          "id": "eeb5decc-f495-479d-a916-4162623e9efb",
          "name": "locale",
          "protocol": "openid-connect",
          "protocolMapper": "oidc-usermodel-attribute-mapper",
          "consentRequired": false,
          "consentText": "${locale}",
          "config": {
            "userinfo.token.claim": "true",
            "user.attribute": "locale",
            "id.token.claim": "true",
            "access.token.claim": "true",
            "claim.name": "locale",
            "jsonType.label": "String"
          }
        },
        {
          "id": "b9aa829d-b7b6-4168-a0c0-8d9ae99894ec",
          "name": "given name",
          "protocol": "openid-connect",
          "protocolMapper": "oidc-usermodel-property-mapper",
          "consentRequired": true,
          "consentText": "${givenName}",
          "config": {
            "userinfo.token.claim": "true",
            "user.attribute": "firstName",
            "id.token.claim": "true",
            "access.token.claim": "true",
            "claim.name": "given_name",
            "jsonType.label": "String"
          }
        },
        {
          "id": "d9c1d8ec-a753-4adb-a62b-9e9f901983d1",
          "name": "email",
          "protocol": "openid-connect",
          "protocolMapper": "oidc-usermodel-property-mapper",
          "consentRequired": true,
          "consentText": "${email}",
          "config": {
            "userinfo.token.claim": "true",
            "user.attribute": "email",
            "id.token.claim": "true",
            "access.token.claim": "true",
            "claim.name": "email",
            "jsonType.label": "String"
          }
        },
        {
          "id": "aec5d53b-6662-44c0-9eb1-5357dfad62f9",
          "name": "full name",
          "protocol": "openid-connect",
          "protocolMapper": "oidc-full-name-mapper",
          "consentRequired": true,
          "consentText": "${fullName}",
          "config": {
            "id.token.claim": "true",
            "access.token.claim": "true",
            "userinfo.token.claim": "true"
          }
        },
        {
          "id": "923371fe-a9c8-40ba-ad4e-c86d63e1bc0d",
          "name": "username",
          "protocol": "openid-connect",
          "protocolMapper": "oidc-usermodel-property-mapper",
          "consentRequired": true,
          "consentText": "${username}",
          "config": {
            "userinfo.token.claim": "true",
            "user.attribute": "username",
            "id.token.claim": "true",
            "access.token.claim": "true",
            "claim.name": "preferred_username",
            "jsonType.label": "String"
          }
        },
        {
          "id": "670b9464-a214-40ba-87cc-2327c44f2fe4",
          "name": "role list",
          "protocol": "saml",
          "protocolMapper": "saml-role-list-mapper",
          "consentRequired": false,
          "config": {
            "single": "false",
            "attribute.nameformat": "Basic",
            "attribute.name": "Role"
          }
        }
      ],
      "useTemplateConfig": false,
      "useTemplateScope": false,
      "useTemplateMappers": false
    }
  ],
  "clientTemplates": [],
  "browserSecurityHeaders": {
    "xContentTypeOptions": "nosniff",
    "xRobotsTag": "none",
    "xFrameOptions": "SAMEORIGIN",
    "xXSSProtection": "1; mode=block",
    "contentSecurityPolicy": "frame-src 'self'; frame-ancestors 'self'; object-src 'none';",
    "strictTransportSecurity": "max-age=31536000; includeSubDomains"
  },
  "smtpServer": {},
  "eventsEnabled": false,
  "eventsListeners": [
    "jboss-logging"
  ],
  "enabledEventTypes": [],
  "adminEventsEnabled": false,
  "adminEventsDetailsEnabled": false,
  "components": {
    "org.keycloak.services.clientregistration.policy.ClientRegistrationPolicy": [
      {
        "id": "272b79cb-5b6e-4318-9991-14d765465ad5",
        "name": "Allowed Protocol Mapper Types",
        "providerId": "allowed-protocol-mappers",
        "subType": "authenticated",
        "subComponents": {},
        "config": {
          "allowed-protocol-mapper-types": [
            "oidc-sha256-pairwise-sub-mapper",
            "oidc-full-name-mapper",
            "saml-role-list-mapper",
            "saml-user-property-mapper",
            "oidc-address-mapper",
            "saml-user-attribute-mapper",
            "oidc-usermodel-attribute-mapper",
            "oidc-usermodel-property-mapper"
          ],
          "consent-required-for-all-mappers": [
            "true"
          ]
        }
      },
      {
        "id": "8332daf1-3453-4e22-ba36-6fe5ce58d46f",
        "name": "Max Clients Limit",
        "providerId": "max-clients",
        "subType": "anonymous",
        "subComponents": {},
        "config": {
          "max-clients": [
            "200"
          ]
        }
      },
      {
        "id": "89bb5ab0-a841-4f0d-ba86-a7c4153eaf70",
        "name": "Allowed Client Templates",
        "providerId": "allowed-client-templates",
        "subType": "authenticated",
        "subComponents": {},
        "config": {}
      },
      {
        "id": "b609eb5d-6f64-42e7-ad55-5de9cbd336c5",
        "name": "Trusted Hosts",
        "providerId": "trusted-hosts",
        "subType": "anonymous",
        "subComponents": {},
        "config": {
          "host-sending-registration-request-must-match": [
            "true"
          ],
          "client-uris-must-match": [
            "true"
          ]
        }
      },
      {
        "id": "641cafb1-0788-4a24-b637-1c743d1eb97b",
        "name": "Full Scope Disabled",
        "providerId": "scope",
        "subType": "anonymous",
        "subComponents": {},
        "config": {}
      },
      {
        "id": "696d7518-c534-4481-90eb-3fa455b6cb29",
        "name": "Allowed Client Templates",
        "providerId": "allowed-client-templates",
        "subType": "anonymous",
        "subComponents": {},
        "config": {}
      },
      {
        "id": "abf268af-59be-4dd6-87fd-ded5b5a4872d",
        "name": "Allowed Protocol Mapper Types",
        "providerId": "allowed-protocol-mappers",
        "subType": "anonymous",
        "subComponents": {},
        "config": {
          "allowed-protocol-mapper-types": [
            "saml-user-property-mapper",
            "saml-user-attribute-mapper",
            "oidc-full-name-mapper",
            "oidc-usermodel-property-mapper",
            "oidc-sha256-pairwise-sub-mapper",
            "saml-role-list-mapper",
            "oidc-usermodel-attribute-mapper",
            "oidc-address-mapper"
          ],
          "consent-required-for-all-mappers": [
            "true"
          ]
        }
      },
      {
        "id": "072a00f7-ca19-4a3f-87ce-624f4b9dfb18",
        "name": "Consent Required",
        "providerId": "consent-required",
        "subType": "anonymous",
        "subComponents": {},
        "config": {}
      }
    ],
    "org.keycloak.keys.KeyProvider": [
      {
        "id": "ab165f9a-3a92-4b53-8ab0-c33e7d35392e",
        "name": "rsa-generated",
        "providerId": "rsa-generated",
        "subComponents": {},
        "config": {
          "priority": [
            "100"
          ]
        }
      },
      {
        "id": "fcdd3f2c-e4b1-4a33-888c-6934cdbbec7e",
        "name": "hmac-generated",
        "providerId": "hmac-generated",
        "subComponents": {},
        "config": {
          "priority": [
            "100"
          ]
        }
      },
      {
        "id": "41b3f7af-3ef6-4c88-bf84-a85154717094",
        "name": "aes-generated",
        "providerId": "aes-generated",
        "subComponents": {},
        "config": {
          "priority": [
            "100"
          ]
        }
      }
    ]
  },
  "internationalizationEnabled": false,
  "supportedLocales": [],
  "authenticationFlows": [
    {
      "id": "db986ffd-9f1e-4970-b430-8ea9d579ab93",
      "alias": "Handle Existing Account",
      "description": "Handle what to do if there is existing account with same email/username like authenticated identity provider",
      "providerId": "basic-flow",
      "topLevel": false,
      "builtIn": true,
      "authenticationExecutions": [
        {
          "authenticator": "idp-confirm-link",
          "requirement": "REQUIRED",
          "priority": 10,
          "userSetupAllowed": false,
          "autheticatorFlow": false
        },
        {
          "authenticator": "idp-email-verification",
          "requirement": "ALTERNATIVE",
          "priority": 20,
          "userSetupAllowed": false,
          "autheticatorFlow": false
        },
        {
          "requirement": "ALTERNATIVE",
          "priority": 30,
          "flowAlias": "Verify Existing Account by Re-authentication",
          "userSetupAllowed": false,
          "autheticatorFlow": true
        }
      ]
    },
    {
      "id": "05bf259b-e204-4339-8e8f-60fe862b8c37",
      "alias": "Verify Existing Account by Re-authentication",
      "description": "Reauthentication of existing account",
      "providerId": "basic-flow",
      "topLevel": false,
      "builtIn": true,
      "authenticationExecutions": [
        {
          "authenticator": "idp-username-password-form",
          "requirement": "REQUIRED",
          "priority": 10,
          "userSetupAllowed": false,
          "autheticatorFlow": false
        },
        {
          "authenticator": "auth-otp-form",
          "requirement": "OPTIONAL",
          "priority": 20,
          "userSetupAllowed": false,
          "autheticatorFlow": false
        }
      ]
    },
    {
      "id": "9431d577-0e60-4a53-a7db-58b510d851ff",
      "alias": "browser",
      "description": "browser based authentication",
      "providerId": "basic-flow",
      "topLevel": true,
      "builtIn": true,
      "authenticationExecutions": [
        {
          "authenticator": "auth-cookie",
          "requirement": "ALTERNATIVE",
          "priority": 10,
          "userSetupAllowed": false,
          "autheticatorFlow": false
        },
        {
          "authenticator": "auth-spnego",
          "requirement": "DISABLED",
          "priority": 20,
          "userSetupAllowed": false,
          "autheticatorFlow": false
        },
        {
          "authenticator": "identity-provider-redirector",
          "requirement": "ALTERNATIVE",
          "priority": 25,
          "userSetupAllowed": false,
          "autheticatorFlow": false
        },
        {
          "requirement": "ALTERNATIVE",
          "priority": 30,
          "flowAlias": "forms",
          "userSetupAllowed": false,
          "autheticatorFlow": true
        }
      ]
    },
    {
      "id": "f13d9800-daf3-4db9-81ec-5b45abadeb6e",
      "alias": "clients",
      "description": "Base authentication for clients",
      "providerId": "client-flow",
      "topLevel": true,
      "builtIn": true,
      "authenticationExecutions": [
        {
          "authenticator": "client-secret",
          "requirement": "ALTERNATIVE",
          "priority": 10,
          "userSetupAllowed": false,
          "autheticatorFlow": false
        },
        {
          "authenticator": "client-jwt",
          "requirement": "ALTERNATIVE",
          "priority": 20,
          "userSetupAllowed": false,
          "autheticatorFlow": false
        }
      ]
    },
    {
      "id": "1574f9e2-243a-4b8b-86a1-f92a865da145",
      "alias": "direct grant",
      "description": "OpenID Connect Resource Owner Grant",
      "providerId": "basic-flow",
      "topLevel": true,
      "builtIn": true,
      "authenticationExecutions": [
        {
          "authenticator": "direct-grant-validate-username",
          "requirement": "REQUIRED",
          "priority": 10,
          "userSetupAllowed": false,
          "autheticatorFlow": false
        },
        {
          "authenticator": "direct-grant-validate-password",
          "requirement": "REQUIRED",
          "priority": 20,
          "userSetupAllowed": false,
          "autheticatorFlow": false
        },
        {
          "authenticator": "direct-grant-validate-otp",
          "requirement": "OPTIONAL",
          "priority": 30,
          "userSetupAllowed": false,
          "autheticatorFlow": false
        }
      ]
    },
    {
      "id": "82278111-48bf-402a-b179-c67e8de23956",
      "alias": "docker auth",
      "description": "Used by Docker clients to authenticate against the IDP",
      "providerId": "basic-flow",
      "topLevel": true,
      "builtIn": true,
      "authenticationExecutions": [
        {
          "authenticator": "docker-http-basic-authenticator",
          "requirement": "REQUIRED",
          "priority": 10,
          "userSetupAllowed": false,
          "autheticatorFlow": false
        }
      ]
    },
    {
      "id": "b4b5cadc-153c-448a-b579-7b59504f3994",
      "alias": "first broker login",
      "description": "Actions taken after first broker login with identity provider account, which is not yet linked to any Keycloak account",
      "providerId": "basic-flow",
      "topLevel": true,
      "builtIn": true,
      "authenticationExecutions": [
        {
          "authenticatorConfig": "review profile config",
          "authenticator": "idp-review-profile",
          "requirement": "REQUIRED",
          "priority": 10,
          "userSetupAllowed": false,
          "autheticatorFlow": false
        },
        {
          "authenticatorConfig": "create unique user config",
          "authenticator": "idp-create-user-if-unique",
          "requirement": "ALTERNATIVE",
          "priority": 20,
          "userSetupAllowed": false,
          "autheticatorFlow": false
        },
        {
          "requirement": "ALTERNATIVE",
          "priority": 30,
          "flowAlias": "Handle Existing Account",
          "userSetupAllowed": false,
          "autheticatorFlow": true
        }
      ]
    },
    {
      "id": "373ab70f-9adf-48d8-adea-e49e35326051",
      "alias": "forms",
      "description": "Username, password, otp and other auth forms.",
      "providerId": "basic-flow",
      "topLevel": false,
      "builtIn": true,
      "authenticationExecutions": [
        {
          "authenticator": "auth-username-password-form",
          "requirement": "REQUIRED",
          "priority": 10,
          "userSetupAllowed": false,
          "autheticatorFlow": false
        },
        {
          "authenticator": "auth-otp-form",
          "requirement": "OPTIONAL",
          "priority": 20,
          "userSetupAllowed": false,
          "autheticatorFlow": false
        }
      ]
    },
    {
      "id": "b5669974-b64f-4f37-89d3-4d41ca33e192",
      "alias": "registration",
      "description": "registration flow",
      "providerId": "basic-flow",
      "topLevel": true,
      "builtIn": true,
      "authenticationExecutions": [
        {
          "authenticator": "registration-page-form",
          "requirement": "REQUIRED",
          "priority": 10,
          "flowAlias": "registration form",
          "userSetupAllowed": false,
          "autheticatorFlow": true
        }
      ]
    },
    {
      "id": "a077938c-4938-40c8-a5ed-af4c6896381d",
      "alias": "registration form",
      "description": "registration form",
      "providerId": "form-flow",
      "topLevel": false,
      "builtIn": true,
      "authenticationExecutions": [
        {
          "authenticator": "registration-user-creation",
          "requirement": "REQUIRED",
          "priority": 20,
          "userSetupAllowed": false,
          "autheticatorFlow": false
        },
        {
          "authenticator": "registration-profile-action",
          "requirement": "REQUIRED",
          "priority": 40,
          "userSetupAllowed": false,
          "autheticatorFlow": false
        },
        {
          "authenticator": "registration-password-action",
          "requirement": "REQUIRED",
          "priority": 50,
          "userSetupAllowed": false,
          "autheticatorFlow": false
        },
        {
          "authenticator": "registration-recaptcha-action",
          "requirement": "DISABLED",
          "priority": 60,
          "userSetupAllowed": false,
          "autheticatorFlow": false
        }
      ]
    },
    {
      "id": "bf8a3bc3-833d-41a8-b254-5b21aef82798",
      "alias": "reset credentials",
      "description": "Reset credentials for a user if they forgot their password or something",
      "providerId": "basic-flow",
      "topLevel": true,
      "builtIn": true,
      "authenticationExecutions": [
        {
          "authenticator": "reset-credentials-choose-user",
          "requirement": "REQUIRED",
          "priority": 10,
          "userSetupAllowed": false,
          "autheticatorFlow": false
        },
        {
          "authenticator": "reset-credential-email",
          "requirement": "REQUIRED",
          "priority": 20,
          "userSetupAllowed": false,
          "autheticatorFlow": false
        },
        {
          "authenticator": "reset-password",
          "requirement": "REQUIRED",
          "priority": 30,
          "userSetupAllowed": false,
          "autheticatorFlow": false
        },
        {
          "authenticator": "reset-otp",
          "requirement": "OPTIONAL",
          "priority": 40,
          "userSetupAllowed": false,
          "autheticatorFlow": false
        }
      ]
    },
    {
      "id": "2f1f4e77-23b6-4d94-bde1-c41a523b002b",
      "alias": "saml ecp",
      "description": "SAML ECP Profile Authentication Flow",
      "providerId": "basic-flow",
      "topLevel": true,
      "builtIn": true,
      "authenticationExecutions": [
        {
          "authenticator": "http-basic-authenticator",
          "requirement": "REQUIRED",
          "priority": 10,
          "userSetupAllowed": false,
          "autheticatorFlow": false
        }
      ]
    }
  ],
  "authenticatorConfig": [
    {
      "id": "360559ee-ed65-40b2-8033-34dfec8a9f25",
      "alias": "create unique user config",
      "config": {
        "require.password.update.after.registration": "false"
      }
    },
    {
      "id": "7e821d75-39cc-4acc-b42d-27cfe26e08f7",
      "alias": "review profile config",
      "config": {
        "update.profile.on.first.login": "missing"
      }
    }
  ],
  "requiredActions": [
    {
      "alias": "CONFIGURE_TOTP",
      "name": "Configure OTP",
      "providerId": "CONFIGURE_TOTP",
      "enabled": true,
      "defaultAction": false,
      "config": {}
    },
    {
      "alias": "UPDATE_PASSWORD",
      "name": "Update Password",
      "providerId": "UPDATE_PASSWORD",
      "enabled": true,
      "defaultAction": false,
      "config": {}
    },
    {
      "alias": "UPDATE_PROFILE",
      "name": "Update Profile",
      "providerId": "UPDATE_PROFILE",
      "enabled": true,
      "defaultAction": false,
      "config": {}
    },
    {
      "alias": "VERIFY_EMAIL",
      "name": "Verify Email",
      "providerId": "VERIFY_EMAIL",
      "enabled": true,
      "defaultAction": false,
      "config": {}
    },
    {
      "alias": "terms_and_conditions",
      "name": "Terms and Conditions",
      "providerId": "terms_and_conditions",
      "enabled": false,
      "defaultAction": false,
      "config": {}
    }
  ],
  "browserFlow": "browser",
  "registrationFlow": "registration",
  "directGrantFlow": "direct grant",
  "resetCredentialsFlow": "reset credentials",
  "clientAuthenticationFlow": "clients",
  "dockerAuthenticationFlow": "docker auth",
  "attributes": {
    "_browser_header.xXSSProtection": "1; mode=block",
    "_browser_header.strictTransportSecurity": "max-age=31536000; includeSubDomains",
    "_browser_header.xFrameOptions": "SAMEORIGIN",
    "permanentLockout": "false",
    "quickLoginCheckMilliSeconds": "1000",
    "_browser_header.xRobotsTag": "none",
    "maxFailureWaitSeconds": "900",
    "minimumQuickLoginWaitSeconds": "60",
    "failureFactor": "30",
    "actionTokenGeneratedByUserLifespan": "300",
    "maxDeltaTimeSeconds": "43200",
    "_browser_header.xContentTypeOptions": "nosniff",
    "actionTokenGeneratedByAdminLifespan": "43200",
    "bruteForceProtected": "false",
    "_browser_header.contentSecurityPolicy": "frame-src 'self'; frame-ancestors 'self'; object-src 'none';",
    "waitIncrementSeconds": "60"
  },
  "keycloakVersion": "3.4.3.Final"
}